{
    "m_SGVersion": 2,
    "m_Type": "UnityEditor.ShaderGraph.GraphData",
    "m_ObjectId": "9c7843e366f04006b8757a1580b585d0",
    "m_Properties": [
        {
            "m_Id": "1b505d6dc231441b9185f745893ad818"
        },
        {
            "m_Id": "308e7a3eadf142cead85efdcd03d7c08"
        },
        {
            "m_Id": "c32c3094336b4638aa6f3d7c9fc51709"
        },
        {
            "m_Id": "1f84139257f544ccad29e49ae09aaa49"
        }
    ],
    "m_Keywords": [],
    "m_Nodes": [
        {
            "m_Id": "3b831ef98f5447f08f445220eb363c35"
        },
        {
            "m_Id": "e2cf776540a141a3b4a7fd05dfdfe6d0"
        },
        {
            "m_Id": "a54b9db493f64b85ae0ec3770aa5e678"
        },
        {
            "m_Id": "bbce4723b3da4857a72f4c3180719c69"
        },
        {
            "m_Id": "e1cf0350d28c49069ddb6782e01454fa"
        },
        {
            "m_Id": "606da49cbee7418a9a94755e50b1956b"
        },
        {
            "m_Id": "89c146404a284eb294b2c7804480b1b8"
        },
        {
            "m_Id": "4c18df85aaa441a2bc9dd4d1b802758f"
        },
        {
            "m_Id": "21fa18d8b296455bafdbfe1b612ef2b5"
        },
        {
            "m_Id": "fcf33d393abe40588f62fc636abaed24"
        },
        {
            "m_Id": "3006b7aa0dbd424ab7be540fbc3efc3a"
        },
        {
            "m_Id": "adff04bc8d30485ca5912ce1354f75f7"
        },
        {
            "m_Id": "8d5b11c18f4541a3a74203dc54043211"
        },
        {
            "m_Id": "4c87c3fa7a254004b64e01fb9727ca05"
        },
        {
            "m_Id": "24fb9d43005d478abe57a02a0296eb96"
        },
        {
            "m_Id": "1e719b16f94e45079ac374ffb971352f"
        }
    ],
    "m_GroupDatas": [],
    "m_StickyNoteDatas": [],
    "m_Edges": [
        {
            "m_OutputSlot": {
                "m_Node": {
                    "m_Id": "1e719b16f94e45079ac374ffb971352f"
                },
                "m_SlotId": 0
            },
            "m_InputSlot": {
                "m_Node": {
                    "m_Id": "89c146404a284eb294b2c7804480b1b8"
                },
                "m_SlotId": 0
            }
        },
        {
            "m_OutputSlot": {
                "m_Node": {
                    "m_Id": "24fb9d43005d478abe57a02a0296eb96"
                },
                "m_SlotId": 0
            },
            "m_InputSlot": {
                "m_Node": {
                    "m_Id": "4c87c3fa7a254004b64e01fb9727ca05"
                },
                "m_SlotId": 2
            }
        },
        {
            "m_OutputSlot": {
                "m_Node": {
                    "m_Id": "3006b7aa0dbd424ab7be540fbc3efc3a"
                },
                "m_SlotId": 2
            },
            "m_InputSlot": {
                "m_Node": {
                    "m_Id": "8d5b11c18f4541a3a74203dc54043211"
                },
                "m_SlotId": 0
            }
        },
        {
            "m_OutputSlot": {
                "m_Node": {
                    "m_Id": "4c87c3fa7a254004b64e01fb9727ca05"
                },
                "m_SlotId": 1
            },
            "m_InputSlot": {
                "m_Node": {
                    "m_Id": "e1cf0350d28c49069ddb6782e01454fa"
                },
                "m_SlotId": 0
            }
        },
        {
            "m_OutputSlot": {
                "m_Node": {
                    "m_Id": "8d5b11c18f4541a3a74203dc54043211"
                },
                "m_SlotId": 3
            },
            "m_InputSlot": {
                "m_Node": {
                    "m_Id": "4c87c3fa7a254004b64e01fb9727ca05"
                },
                "m_SlotId": 0
            }
        },
        {
            "m_OutputSlot": {
                "m_Node": {
                    "m_Id": "adff04bc8d30485ca5912ce1354f75f7"
                },
                "m_SlotId": 0
            },
            "m_InputSlot": {
                "m_Node": {
                    "m_Id": "3006b7aa0dbd424ab7be540fbc3efc3a"
                },
                "m_SlotId": 1
            }
        },
        {
            "m_OutputSlot": {
                "m_Node": {
                    "m_Id": "fcf33d393abe40588f62fc636abaed24"
                },
                "m_SlotId": 0
            },
            "m_InputSlot": {
                "m_Node": {
                    "m_Id": "bbce4723b3da4857a72f4c3180719c69"
                },
                "m_SlotId": 0
            }
        }
    ],
    "m_VertexContext": {
        "m_Position": {
            "x": 204.0,
            "y": 14.0
        },
        "m_Blocks": [
            {
                "m_Id": "3b831ef98f5447f08f445220eb363c35"
            },
            {
                "m_Id": "e2cf776540a141a3b4a7fd05dfdfe6d0"
            },
            {
                "m_Id": "a54b9db493f64b85ae0ec3770aa5e678"
            }
        ]
    },
    "m_FragmentContext": {
        "m_Position": {
            "x": 204.0,
            "y": 214.0
        },
        "m_Blocks": [
            {
                "m_Id": "bbce4723b3da4857a72f4c3180719c69"
            },
            {
                "m_Id": "e1cf0350d28c49069ddb6782e01454fa"
            },
            {
                "m_Id": "606da49cbee7418a9a94755e50b1956b"
            },
            {
                "m_Id": "89c146404a284eb294b2c7804480b1b8"
            },
            {
                "m_Id": "4c18df85aaa441a2bc9dd4d1b802758f"
            },
            {
                "m_Id": "21fa18d8b296455bafdbfe1b612ef2b5"
            }
        ]
    },
    "m_PreviewData": {
        "serializedMesh": {
            "m_SerializedMesh": "{\"mesh\":{\"instanceID\":0}}",
            "m_Guid": ""
        }
    },
    "m_Path": "Shader Graphs",
    "m_ConcretePrecision": 0,
    "m_PreviewMode": 2,
    "m_OutputNode": {
        "m_Id": ""
    },
    "m_ActiveTargets": [
        {
            "m_Id": "de8de77e16164a0fadf01cfb1dd65bfc"
        }
    ]
}

{
    "m_SGVersion": 0,
    "m_Type": "UnityEditor.ShaderGraph.Vector1MaterialSlot",
    "m_ObjectId": "15cc8fac42c94d5488294c595d236adf",
    "m_Id": 0,
    "m_DisplayName": "Strength",
    "m_SlotType": 1,
    "m_Hidden": false,
    "m_ShaderOutputName": "Out",
    "m_StageCapability": 3,
    "m_Value": 0.0,
    "m_DefaultValue": 0.0,
    "m_Labels": []
}

{
    "m_SGVersion": 3,
    "m_Type": "UnityEditor.ShaderGraph.Internal.ColorShaderProperty",
    "m_ObjectId": "1b505d6dc231441b9185f745893ad818",
    "m_Guid": {
        "m_GuidSerialized": "f46a3b07-c81d-438d-8a06-9cf2ca784d00"
    },
    "m_Name": "Color",
    "m_DefaultReferenceName": "Color_1b505d6dc231441b9185f745893ad818",
    "m_OverrideReferenceName": "_Color",
    "m_GeneratePropertyBlock": true,
    "m_Precision": 0,
    "overrideHLSLDeclaration": false,
    "hlslDeclarationOverride": 0,
    "m_Hidden": false,
    "m_Value": {
        "r": 0.0,
        "g": 0.0,
        "b": 0.0,
        "a": 0.0
    },
    "m_ColorMode": 0
}

{
    "m_SGVersion": 0,
    "m_Type": "UnityEditor.ShaderGraph.PropertyNode",
    "m_ObjectId": "1e719b16f94e45079ac374ffb971352f",
    "m_Group": {
        "m_Id": ""
    },
    "m_Name": "Property",
    "m_DrawState": {
        "m_Expanded": true,
        "m_Position": {
            "serializedVersion": "2",
            "x": -246.67498779296876,
            "y": -169.0500030517578,
            "width": 0.0,
            "height": 0.0
        }
    },
    "m_Slots": [
        {
            "m_Id": "3ca987dac8fd487d9ac1e3b71048cbc7"
        }
    ],
    "synonyms": [],
    "m_Precision": 0,
    "m_PreviewExpanded": true,
    "m_PreviewMode": 0,
    "m_CustomColors": {
        "m_SerializableColors": []
    },
    "m_Property": {
        "m_Id": "1f84139257f544ccad29e49ae09aaa49"
    }
}

{
    "m_SGVersion": 1,
    "m_Type": "UnityEditor.ShaderGraph.Internal.Vector1ShaderProperty",
    "m_ObjectId": "1f84139257f544ccad29e49ae09aaa49",
    "m_Guid": {
        "m_GuidSerialized": "f0c2ea05-bd33-4e24-9726-b55906e9fc44"
    },
    "m_Name": "Smoothness",
    "m_DefaultReferenceName": "Vector1_1f84139257f544ccad29e49ae09aaa49",
    "m_OverrideReferenceName": "",
    "m_GeneratePropertyBlock": true,
    "m_Precision": 0,
    "overrideHLSLDeclaration": false,
    "hlslDeclarationOverride": 0,
    "m_Hidden": false,
    "m_Value": 0.5,
    "m_FloatType": 1,
    "m_RangeValues": {
        "x": 0.0,
        "y": 1.0
    }
}

{
    "m_SGVersion": 0,
    "m_Type": "UnityEditor.ShaderGraph.BlockNode",
    "m_ObjectId": "21fa18d8b296455bafdbfe1b612ef2b5",
    "m_Group": {
        "m_Id": ""
    },
    "m_Name": "SurfaceDescription.Occlusion",
    "m_DrawState": {
        "m_Expanded": true,
        "m_Position": {
            "serializedVersion": "2",
            "x": 0.0,
            "y": 0.0,
            "width": 0.0,
            "height": 0.0
        }
    },
    "m_Slots": [
        {
            "m_Id": "548453efc19b4d6cb8a0d8e65f6e21aa"
        }
    ],
    "synonyms": [],
    "m_Precision": 0,
    "m_PreviewExpanded": true,
    "m_PreviewMode": 0,
    "m_CustomColors": {
        "m_SerializableColors": []
    },
    "m_SerializedDescriptor": "SurfaceDescription.Occlusion"
}

{
    "m_SGVersion": 0,
    "m_Type": "UnityEditor.ShaderGraph.PropertyNode",
    "m_ObjectId": "24fb9d43005d478abe57a02a0296eb96",
    "m_Group": {
        "m_Id": ""
    },
    "m_Name": "Property",
    "m_DrawState": {
        "m_Expanded": true,
        "m_Position": {
            "serializedVersion": "2",
            "x": -511.0,
            "y": -145.0,
            "width": 120.5,
            "height": 34.0
        }
    },
    "m_Slots": [
        {
            "m_Id": "15cc8fac42c94d5488294c595d236adf"
        }
    ],
    "synonyms": [],
    "m_Precision": 0,
    "m_PreviewExpanded": true,
    "m_PreviewMode": 0,
    "m_CustomColors": {
        "m_SerializableColors": []
    },
    "m_Property": {
        "m_Id": "c32c3094336b4638aa6f3d7c9fc51709"
    }
}

{
    "m_SGVersion": 0,
    "m_Type": "UnityEditor.ShaderGraph.PositionMaterialSlot",
    "m_ObjectId": "2a21c3656ee044c4960e8618eb868210",
    "m_Id": 0,
    "m_DisplayName": "Position",
    "m_SlotType": 0,
    "m_Hidden": false,
    "m_ShaderOutputName": "Position",
    "m_StageCapability": 1,
    "m_Value": {
        "x": 0.0,
        "y": 0.0,
        "z": 0.0
    },
    "m_DefaultValue": {
        "x": 0.0,
        "y": 0.0,
        "z": 0.0
    },
    "m_Labels": [],
    "m_Space": 0
}

{
    "m_SGVersion": 0,
    "m_Type": "UnityEditor.ShaderGraph.ColorRGBMaterialSlot",
    "m_ObjectId": "2dfa920b115c41db896d69834a0fffd7",
    "m_Id": 0,
    "m_DisplayName": "Emission",
    "m_SlotType": 0,
    "m_Hidden": false,
    "m_ShaderOutputName": "Emission",
    "m_StageCapability": 2,
    "m_Value": {
        "x": 0.0,
        "y": 0.0,
        "z": 0.0
    },
    "m_DefaultValue": {
        "x": 0.0,
        "y": 0.0,
        "z": 0.0
    },
    "m_Labels": [],
    "m_ColorMode": 1,
    "m_DefaultColor": {
        "r": 0.0,
        "g": 0.0,
        "b": 0.0,
        "a": 1.0
    }
}

{
    "m_SGVersion": 0,
    "m_Type": "UnityEditor.ShaderGraph.GradientNoiseNode",
    "m_ObjectId": "3006b7aa0dbd424ab7be540fbc3efc3a",
    "m_Group": {
        "m_Id": ""
    },
    "m_Name": "Gradient Noise",
    "m_DrawState": {
        "m_Expanded": true,
        "m_Position": {
            "serializedVersion": "2",
            "x": -733.0,
            "y": 139.0,
            "width": 208.0,
            "height": 302.0
        }
    },
    "m_Slots": [
        {
            "m_Id": "8ec00c56d8354afa8e890c008d4d0780"
        },
        {
            "m_Id": "82dff9099d0142f9b7d6cfc5766d6f66"
        },
        {
            "m_Id": "5cf70787c29448ec968947d7d787e93c"
        }
    ],
    "synonyms": [],
    "m_Precision": 0,
    "m_PreviewExpanded": true,
    "m_PreviewMode": 0,
    "m_CustomColors": {
        "m_SerializableColors": []
    }
}

{
    "m_SGVersion": 1,
    "m_Type": "UnityEditor.ShaderGraph.Internal.Vector1ShaderProperty",
    "m_ObjectId": "308e7a3eadf142cead85efdcd03d7c08",
    "m_Guid": {
        "m_GuidSerialized": "1d082539-11ef-47f9-9209-e8e7099800d7"
    },
    "m_Name": "Scale",
    "m_DefaultReferenceName": "Vector1_308e7a3eadf142cead85efdcd03d7c08",
    "m_OverrideReferenceName": "",
    "m_GeneratePropertyBlock": true,
    "m_Precision": 0,
    "overrideHLSLDeclaration": false,
    "hlslDeclarationOverride": 0,
    "m_Hidden": false,
    "m_Value": 3.0,
    "m_FloatType": 1,
    "m_RangeValues": {
        "x": 0.0,
        "y": 100.0
    }
}

{
    "m_SGVersion": 0,
    "m_Type": "UnityEditor.ShaderGraph.DynamicVectorMaterialSlot",
    "m_ObjectId": "32771bc85a2b40fd8387479c589514a7",
    "m_Id": 0,
    "m_DisplayName": "In",
    "m_SlotType": 0,
    "m_Hidden": false,
    "m_ShaderOutputName": "In",
    "m_StageCapability": 3,
    "m_Value": {
        "x": -1.0,
        "y": -1.0,
        "z": -1.0,
        "w": -1.0
    },
    "m_DefaultValue": {
        "x": 0.0,
        "y": 0.0,
        "z": 0.0,
        "w": 0.0
    }
}

{
    "m_SGVersion": 0,
    "m_Type": "UnityEditor.ShaderGraph.Vector1MaterialSlot",
    "m_ObjectId": "338e801134ba4578a38ddb69ea14721a",
    "m_Id": 0,
    "m_DisplayName": "Scale",
    "m_SlotType": 1,
    "m_Hidden": false,
    "m_ShaderOutputName": "Out",
    "m_StageCapability": 3,
    "m_Value": 0.0,
    "m_DefaultValue": 0.0,
    "m_Labels": []
}

{
    "m_SGVersion": 0,
    "m_Type": "UnityEditor.Rendering.Universal.ShaderGraph.UniversalLitSubTarget",
    "m_ObjectId": "365cae41e76f4be4994837d26228b890",
    "m_WorkflowMode": 1,
    "m_NormalDropOffSpace": 0,
    "m_ClearCoat": false
}

{
    "m_SGVersion": 0,
    "m_Type": "UnityEditor.ShaderGraph.BlockNode",
    "m_ObjectId": "3b831ef98f5447f08f445220eb363c35",
    "m_Group": {
        "m_Id": ""
    },
    "m_Name": "VertexDescription.Position",
    "m_DrawState": {
        "m_Expanded": true,
        "m_Position": {
            "serializedVersion": "2",
            "x": 0.0,
            "y": 0.0,
            "width": 0.0,
            "height": 0.0
        }
    },
    "m_Slots": [
        {
            "m_Id": "2a21c3656ee044c4960e8618eb868210"
        }
    ],
    "synonyms": [],
    "m_Precision": 0,
    "m_PreviewExpanded": true,
    "m_PreviewMode": 0,
    "m_CustomColors": {
        "m_SerializableColors": []
    },
    "m_SerializedDescriptor": "VertexDescription.Position"
}

{
    "m_SGVersion": 0,
    "m_Type": "UnityEditor.ShaderGraph.Vector1MaterialSlot",
    "m_ObjectId": "3ca987dac8fd487d9ac1e3b71048cbc7",
    "m_Id": 0,
    "m_DisplayName": "Smoothness",
    "m_SlotType": 1,
    "m_Hidden": false,
    "m_ShaderOutputName": "Out",
    "m_StageCapability": 3,
    "m_Value": 0.0,
    "m_DefaultValue": 0.0,
    "m_Labels": []
}

{
    "m_SGVersion": 0,
    "m_Type": "UnityEditor.ShaderGraph.TangentMaterialSlot",
    "m_ObjectId": "47a6f6a5710943a3a904851b7b424482",
    "m_Id": 0,
    "m_DisplayName": "Tangent",
    "m_SlotType": 0,
    "m_Hidden": false,
    "m_ShaderOutputName": "Tangent",
    "m_StageCapability": 1,
    "m_Value": {
        "x": 0.0,
        "y": 0.0,
        "z": 0.0
    },
    "m_DefaultValue": {
        "x": 0.0,
        "y": 0.0,
        "z": 0.0
    },
    "m_Labels": [],
    "m_Space": 0
}

{
    "m_SGVersion": 0,
    "m_Type": "UnityEditor.ShaderGraph.Vector2MaterialSlot",
    "m_ObjectId": "4b8ff90e16794640932826bfed28a335",
    "m_Id": 2,
    "m_DisplayName": "Out Min Max",
    "m_SlotType": 0,
    "m_Hidden": false,
    "m_ShaderOutputName": "OutMinMax",
    "m_StageCapability": 3,
    "m_Value": {
        "x": 0.0,
        "y": 1.0
    },
    "m_DefaultValue": {
        "x": 0.0,
        "y": 0.0
    },
    "m_Labels": []
}

{
    "m_SGVersion": 0,
    "m_Type": "UnityEditor.ShaderGraph.BlockNode",
    "m_ObjectId": "4c18df85aaa441a2bc9dd4d1b802758f",
    "m_Group": {
        "m_Id": ""
    },
    "m_Name": "SurfaceDescription.Emission",
    "m_DrawState": {
        "m_Expanded": true,
        "m_Position": {
            "serializedVersion": "2",
            "x": 0.0,
            "y": 0.0,
            "width": 0.0,
            "height": 0.0
        }
    },
    "m_Slots": [
        {
            "m_Id": "2dfa920b115c41db896d69834a0fffd7"
        }
    ],
    "synonyms": [],
    "m_Precision": 0,
    "m_PreviewExpanded": true,
    "m_PreviewMode": 0,
    "m_CustomColors": {
        "m_SerializableColors": []
    },
    "m_SerializedDescriptor": "SurfaceDescription.Emission"
}

{
    "m_SGVersion": 0,
    "m_Type": "UnityEditor.ShaderGraph.NormalFromHeightNode",
    "m_ObjectId": "4c87c3fa7a254004b64e01fb9727ca05",
    "m_Group": {
        "m_Id": ""
    },
    "m_Name": "Normal From Height",
    "m_DrawState": {
        "m_Expanded": true,
        "m_Position": {
            "serializedVersion": "2",
            "x": -178.5000457763672,
            "y": 238.50003051757813,
            "width": 208.0,
            "height": 336.5
        }
    },
    "m_Slots": [
        {
            "m_Id": "f0724e78a42141028bdaed149432f4e9"
        },
        {
            "m_Id": "ac7f5ae263ca4ce99dbc447dc4c09f64"
        },
        {
            "m_Id": "80a55a7d19f4437cb2d4fab03a50ae45"
        }
    ],
    "synonyms": [],
    "m_Precision": 0,
    "m_PreviewExpanded": true,
    "m_PreviewMode": 0,
    "m_CustomColors": {
        "m_SerializableColors": []
    },
    "m_OutputSpace": 0
}

{
    "m_SGVersion": 0,
    "m_Type": "UnityEditor.ShaderGraph.Vector1MaterialSlot",
    "m_ObjectId": "548453efc19b4d6cb8a0d8e65f6e21aa",
    "m_Id": 0,
    "m_DisplayName": "Ambient Occlusion",
    "m_SlotType": 0,
    "m_Hidden": false,
    "m_ShaderOutputName": "Occlusion",
    "m_StageCapability": 2,
    "m_Value": 1.0,
    "m_DefaultValue": 1.0,
    "m_Labels": []
}

{
    "m_SGVersion": 0,
    "m_Type": "UnityEditor.ShaderGraph.Vector1MaterialSlot",
    "m_ObjectId": "5cf70787c29448ec968947d7d787e93c",
    "m_Id": 2,
    "m_DisplayName": "Out",
    "m_SlotType": 1,
    "m_Hidden": false,
    "m_ShaderOutputName": "Out",
    "m_StageCapability": 3,
    "m_Value": 0.0,
    "m_DefaultValue": 0.0,
    "m_Labels": []
}

{
    "m_SGVersion": 0,
    "m_Type": "UnityEditor.ShaderGraph.BlockNode",
    "m_ObjectId": "606da49cbee7418a9a94755e50b1956b",
    "m_Group": {
        "m_Id": ""
    },
    "m_Name": "SurfaceDescription.Metallic",
    "m_DrawState": {
        "m_Expanded": true,
        "m_Position": {
            "serializedVersion": "2",
            "x": 0.0,
            "y": 0.0,
            "width": 0.0,
            "height": 0.0
        }
    },
    "m_Slots": [
        {
            "m_Id": "77c3cc00073e4a799e2a4b7a5980bff0"
        }
    ],
    "synonyms": [],
    "m_Precision": 0,
    "m_PreviewExpanded": true,
    "m_PreviewMode": 0,
    "m_CustomColors": {
        "m_SerializableColors": []
    },
    "m_SerializedDescriptor": "SurfaceDescription.Metallic"
}

{
    "m_SGVersion": 0,
    "m_Type": "UnityEditor.ShaderGraph.Vector1MaterialSlot",
    "m_ObjectId": "77c3cc00073e4a799e2a4b7a5980bff0",
    "m_Id": 0,
    "m_DisplayName": "Metallic",
    "m_SlotType": 0,
    "m_Hidden": false,
    "m_ShaderOutputName": "Metallic",
    "m_StageCapability": 2,
    "m_Value": 0.0,
    "m_DefaultValue": 0.0,
    "m_Labels": []
}

{
    "m_SGVersion": 0,
    "m_Type": "UnityEditor.ShaderGraph.DynamicVectorMaterialSlot",
    "m_ObjectId": "7c63c792c65a4c4d962122f4410bbf0f",
    "m_Id": 3,
    "m_DisplayName": "Out",
    "m_SlotType": 1,
    "m_Hidden": false,
    "m_ShaderOutputName": "Out",
    "m_StageCapability": 3,
    "m_Value": {
        "x": 0.0,
        "y": 0.0,
        "z": 0.0,
        "w": 0.0
    },
    "m_DefaultValue": {
        "x": 0.0,
        "y": 0.0,
        "z": 0.0,
        "w": 0.0
    }
}

{
    "m_SGVersion": 0,
    "m_Type": "UnityEditor.ShaderGraph.Vector3MaterialSlot",
    "m_ObjectId": "80a55a7d19f4437cb2d4fab03a50ae45",
    "m_Id": 1,
    "m_DisplayName": "Out",
    "m_SlotType": 1,
    "m_Hidden": false,
    "m_ShaderOutputName": "Out",
    "m_StageCapability": 2,
    "m_Value": {
        "x": 0.0,
        "y": 0.0,
        "z": 0.0
    },
    "m_DefaultValue": {
        "x": 0.0,
        "y": 0.0,
        "z": 0.0
    },
    "m_Labels": []
}

{
    "m_SGVersion": 0,
    "m_Type": "UnityEditor.ShaderGraph.Vector1MaterialSlot",
    "m_ObjectId": "82dff9099d0142f9b7d6cfc5766d6f66",
    "m_Id": 1,
    "m_DisplayName": "Scale",
    "m_SlotType": 0,
    "m_Hidden": false,
    "m_ShaderOutputName": "Scale",
    "m_StageCapability": 3,
    "m_Value": 10.0,
    "m_DefaultValue": 10.0,
    "m_Labels": []
}

{
    "m_SGVersion": 0,
    "m_Type": "UnityEditor.ShaderGraph.BlockNode",
    "m_ObjectId": "89c146404a284eb294b2c7804480b1b8",
    "m_Group": {
        "m_Id": ""
    },
    "m_Name": "SurfaceDescription.Smoothness",
    "m_DrawState": {
        "m_Expanded": true,
        "m_Position": {
            "serializedVersion": "2",
            "x": 0.0,
            "y": 0.0,
            "width": 0.0,
            "height": 0.0
        }
    },
    "m_Slots": [
        {
            "m_Id": "c12b61e3beaf4f76bf06849221363a0d"
        }
    ],
    "synonyms": [],
    "m_Precision": 0,
    "m_PreviewExpanded": true,
    "m_PreviewMode": 0,
    "m_CustomColors": {
        "m_SerializableColors": []
    },
    "m_SerializedDescriptor": "SurfaceDescription.Smoothness"
}

{
    "m_SGVersion": 0,
    "m_Type": "UnityEditor.ShaderGraph.RemapNode",
    "m_ObjectId": "8d5b11c18f4541a3a74203dc54043211",
    "m_Group": {
        "m_Id": ""
    },
    "m_Name": "Remap",
    "m_DrawState": {
        "m_Expanded": true,
        "m_Position": {
            "serializedVersion": "2",
            "x": -461.0,
            "y": 238.0,
            "width": 208.0,
            "height": 326.0
        }
    },
    "m_Slots": [
        {
            "m_Id": "32771bc85a2b40fd8387479c589514a7"
        },
        {
            "m_Id": "9689ae94240b458b9a06054b8c76da82"
        },
        {
            "m_Id": "4b8ff90e16794640932826bfed28a335"
        },
        {
            "m_Id": "7c63c792c65a4c4d962122f4410bbf0f"
        }
    ],
    "synonyms": [],
    "m_Precision": 0,
    "m_PreviewExpanded": true,
    "m_PreviewMode": 0,
    "m_CustomColors": {
        "m_SerializableColors": []
    }
}

{
    "m_SGVersion": 0,
    "m_Type": "UnityEditor.ShaderGraph.UVMaterialSlot",
    "m_ObjectId": "8ec00c56d8354afa8e890c008d4d0780",
    "m_Id": 0,
    "m_DisplayName": "UV",
    "m_SlotType": 0,
    "m_Hidden": false,
    "m_ShaderOutputName": "UV",
    "m_StageCapability": 3,
    "m_Value": {
        "x": 0.0,
        "y": 0.0
    },
    "m_DefaultValue": {
        "x": 0.0,
        "y": 0.0
    },
    "m_Labels": [],
    "m_Channel": 0
}

{
    "m_SGVersion": 0,
    "m_Type": "UnityEditor.ShaderGraph.Vector4MaterialSlot",
    "m_ObjectId": "91c5dd66da97404fa3ff8256c4646f9c",
    "m_Id": 0,
    "m_DisplayName": "Color",
    "m_SlotType": 1,
    "m_Hidden": false,
    "m_ShaderOutputName": "Out",
    "m_StageCapability": 3,
    "m_Value": {
        "x": 0.0,
        "y": 0.0,
        "z": 0.0,
        "w": 0.0
    },
    "m_DefaultValue": {
        "x": 0.0,
        "y": 0.0,
        "z": 0.0,
        "w": 0.0
    },
    "m_Labels": []
}

{
    "m_SGVersion": 0,
    "m_Type": "UnityEditor.ShaderGraph.Vector2MaterialSlot",
    "m_ObjectId": "9689ae94240b458b9a06054b8c76da82",
    "m_Id": 1,
    "m_DisplayName": "In Min Max",
    "m_SlotType": 0,
    "m_Hidden": false,
    "m_ShaderOutputName": "InMinMax",
    "m_StageCapability": 3,
    "m_Value": {
        "x": -1.0,
        "y": 1.0
    },
    "m_DefaultValue": {
        "x": 0.0,
        "y": 0.0
    },
    "m_Labels": []
}

{
    "m_SGVersion": 0,
    "m_Type": "UnityEditor.ShaderGraph.BlockNode",
    "m_ObjectId": "a54b9db493f64b85ae0ec3770aa5e678",
    "m_Group": {
        "m_Id": ""
    },
    "m_Name": "VertexDescription.Tangent",
    "m_DrawState": {
        "m_Expanded": true,
        "m_Position": {
            "serializedVersion": "2",
            "x": 0.0,
            "y": 0.0,
            "width": 0.0,
            "height": 0.0
        }
    },
    "m_Slots": [
        {
            "m_Id": "47a6f6a5710943a3a904851b7b424482"
        }
    ],
    "synonyms": [],
    "m_Precision": 0,
    "m_PreviewExpanded": true,
    "m_PreviewMode": 0,
    "m_CustomColors": {
        "m_SerializableColors": []
    },
    "m_SerializedDescriptor": "VertexDescription.Tangent"
}

{
    "m_SGVersion": 0,
    "m_Type": "UnityEditor.ShaderGraph.Vector1MaterialSlot",
    "m_ObjectId": "ac7f5ae263ca4ce99dbc447dc4c09f64",
    "m_Id": 2,
    "m_DisplayName": "Strength",
    "m_SlotType": 0,
    "m_Hidden": false,
    "m_ShaderOutputName": "Strength",
    "m_StageCapability": 3,
    "m_Value": 0.6000000238418579,
    "m_DefaultValue": 0.009999999776482582,
    "m_Labels": []
}

{
    "m_SGVersion": 0,
    "m_Type": "UnityEditor.ShaderGraph.PropertyNode",
    "m_ObjectId": "adff04bc8d30485ca5912ce1354f75f7",
    "m_Group": {
        "m_Id": ""
    },
    "m_Name": "Property",
    "m_DrawState": {
        "m_Expanded": true,
        "m_Position": {
            "serializedVersion": "2",
            "x": -881.0,
            "y": 208.0,
            "width": 103.5,
            "height": 34.0
        }
    },
    "m_Slots": [
        {
            "m_Id": "338e801134ba4578a38ddb69ea14721a"
        }
    ],
    "synonyms": [],
    "m_Precision": 0,
    "m_PreviewExpanded": true,
    "m_PreviewMode": 0,
    "m_CustomColors": {
        "m_SerializableColors": []
    },
    "m_Property": {
        "m_Id": "308e7a3eadf142cead85efdcd03d7c08"
    }
}

{
    "m_SGVersion": 0,
    "m_Type": "UnityEditor.ShaderGraph.ColorRGBMaterialSlot",
    "m_ObjectId": "aefd06a141bb49f5b249916937addeb4",
    "m_Id": 0,
    "m_DisplayName": "Base Color",
    "m_SlotType": 0,
    "m_Hidden": false,
    "m_ShaderOutputName": "BaseColor",
    "m_StageCapability": 2,
    "m_Value": {
        "x": 0.5,
        "y": 0.5,
        "z": 0.5
    },
    "m_DefaultValue": {
        "x": 0.0,
        "y": 0.0,
        "z": 0.0
    },
    "m_Labels": [],
    "m_ColorMode": 0,
    "m_DefaultColor": {
        "r": 0.5,
        "g": 0.5,
        "b": 0.5,
        "a": 1.0
    }
}

{
    "m_SGVersion": 0,
    "m_Type": "UnityEditor.ShaderGraph.BlockNode",
    "m_ObjectId": "bbce4723b3da4857a72f4c3180719c69",
    "m_Group": {
        "m_Id": ""
    },
    "m_Name": "SurfaceDescription.BaseColor",
    "m_DrawState": {
        "m_Expanded": true,
        "m_Position": {
            "serializedVersion": "2",
            "x": 0.0,
            "y": 0.0,
            "width": 0.0,
            "height": 0.0
        }
    },
    "m_Slots": [
        {
            "m_Id": "aefd06a141bb49f5b249916937addeb4"
        }
    ],
    "synonyms": [],
    "m_Precision": 0,
    "m_PreviewExpanded": true,
    "m_PreviewMode": 0,
    "m_CustomColors": {
        "m_SerializableColors": []
    },
    "m_SerializedDescriptor": "SurfaceDescription.BaseColor"
}

{
    "m_SGVersion": 0,
    "m_Type": "UnityEditor.ShaderGraph.Vector1MaterialSlot",
    "m_ObjectId": "c12b61e3beaf4f76bf06849221363a0d",
    "m_Id": 0,
    "m_DisplayName": "Smoothness",
    "m_SlotType": 0,
    "m_Hidden": false,
    "m_ShaderOutputName": "Smoothness",
    "m_StageCapability": 2,
    "m_Value": 0.5,
    "m_DefaultValue": 0.5,
    "m_Labels": []
}

{
    "m_SGVersion": 1,
    "m_Type": "UnityEditor.ShaderGraph.Internal.Vector1ShaderProperty",
    "m_ObjectId": "c32c3094336b4638aa6f3d7c9fc51709",
    "m_Guid": {
        "m_GuidSerialized": "d7f4a8ae-187d-4fd0-a130-c494e5da2bd7"
    },
    "m_Name": "Strength",
    "m_DefaultReferenceName": "Vector1_c32c3094336b4638aa6f3d7c9fc51709",
    "m_OverrideReferenceName": "",
    "m_GeneratePropertyBlock": true,
    "m_Precision": 0,
    "overrideHLSLDeclaration": false,
    "hlslDeclarationOverride": 0,
    "m_Hidden": false,
    "m_Value": 0.5,
    "m_FloatType": 1,
    "m_RangeValues": {
        "x": 0.0,
        "y": 0.5
    }
}

{
    "m_SGVersion": 0,
    "m_Type": "UnityEditor.ShaderGraph.NormalMaterialSlot",
    "m_ObjectId": "c474b8d2c61d4c978fe63b8373a56253",
    "m_Id": 0,
    "m_DisplayName": "Normal",
    "m_SlotType": 0,
    "m_Hidden": false,
    "m_ShaderOutputName": "Normal",
    "m_StageCapability": 1,
    "m_Value": {
        "x": 0.0,
        "y": 0.0,
        "z": 0.0
    },
    "m_DefaultValue": {
        "x": 0.0,
        "y": 0.0,
        "z": 0.0
    },
    "m_Labels": [],
    "m_Space": 0
}

{
    "m_SGVersion": 0,
    "m_Type": "UnityEditor.Rendering.Universal.ShaderGraph.UniversalTarget",
    "m_ObjectId": "de8de77e16164a0fadf01cfb1dd65bfc",
    "m_ActiveSubTarget": {
        "m_Id": "365cae41e76f4be4994837d26228b890"
    },
    "m_SurfaceType": 0,
    "m_AlphaMode": 0,
    "m_TwoSided": false,
    "m_AlphaClip": false,
    "m_CustomEditorGUI": ""
}

{
    "m_SGVersion": 0,
    "m_Type": "UnityEditor.ShaderGraph.BlockNode",
    "m_ObjectId": "e1cf0350d28c49069ddb6782e01454fa",
    "m_Group": {
        "m_Id": ""
    },
    "m_Name": "SurfaceDescription.NormalTS",
    "m_DrawState": {
        "m_Expanded": true,
        "m_Position": {
            "serializedVersion": "2",
            "x": 0.0,
            "y": 0.0,
            "width": 0.0,
            "height": 0.0
        }
    },
    "m_Slots": [
        {
            "m_Id": "f8cdd010a6d842b99a1d7f08af336e6a"
        }
    ],
    "synonyms": [],
    "m_Precision": 0,
    "m_PreviewExpanded": true,
    "m_PreviewMode": 0,
    "m_CustomColors": {
        "m_SerializableColors": []
    },
    "m_SerializedDescriptor": "SurfaceDescription.NormalTS"
}

{
    "m_SGVersion": 0,
    "m_Type": "UnityEditor.ShaderGraph.BlockNode",
    "m_ObjectId": "e2cf776540a141a3b4a7fd05dfdfe6d0",
    "m_Group": {
        "m_Id": ""
    },
    "m_Name": "VertexDescription.Normal",
    "m_DrawState": {
        "m_Expanded": true,
        "m_Position": {
            "serializedVersion": "2",
            "x": 0.0,
            "y": 0.0,
            "width": 0.0,
            "height": 0.0
        }
    },
    "m_Slots": [
        {
            "m_Id": "c474b8d2c61d4c978fe63b8373a56253"
        }
    ],
    "synonyms": [],
    "m_Precision": 0,
    "m_PreviewExpanded": true,
    "m_PreviewMode": 0,
    "m_CustomColors": {
        "m_SerializableColors": []
    },
    "m_SerializedDescriptor": "VertexDescription.Normal"
}

{
    "m_SGVersion": 0,
    "m_Type": "UnityEditor.ShaderGraph.Vector1MaterialSlot",
    "m_ObjectId": "f0724e78a42141028bdaed149432f4e9",
    "m_Id": 0,
    "m_DisplayName": "In",
    "m_SlotType": 0,
    "m_Hidden": false,
    "m_ShaderOutputName": "In",
    "m_StageCapability": 3,
    "m_Value": 0.0,
    "m_DefaultValue": 0.0,
    "m_Labels": []
}

{
    "m_SGVersion": 0,
    "m_Type": "UnityEditor.ShaderGraph.NormalMaterialSlot",
    "m_ObjectId": "f8cdd010a6d842b99a1d7f08af336e6a",
    "m_Id": 0,
    "m_DisplayName": "Normal (Tangent Space)",
    "m_SlotType": 0,
    "m_Hidden": false,
    "m_ShaderOutputName": "NormalTS",
    "m_StageCapability": 2,
    "m_Value": {
        "x": 0.0,
        "y": 0.0,
        "z": 0.0
    },
    "m_DefaultValue": {
        "x": 0.0,
        "y": 0.0,
        "z": 0.0
    },
    "m_Labels": [],
    "m_Space": 3
}

{
    "m_SGVersion": 0,
    "m_Type": "UnityEditor.ShaderGraph.PropertyNode",
    "m_ObjectId": "fcf33d393abe40588f62fc636abaed24",
    "m_Group": {
        "m_Id": ""
    },
    "m_Name": "Property",
    "m_DrawState": {
        "m_Expanded": true,
        "m_Position": {
            "serializedVersion": "2",
            "x": -474.0,
            "y": 32.0,
            "width": 106.5,
            "height": 34.0
        }
    },
    "m_Slots": [
        {
            "m_Id": "91c5dd66da97404fa3ff8256c4646f9c"
        }
    ],
    "synonyms": [],
    "m_Precision": 0,
    "m_PreviewExpanded": true,
    "m_PreviewMode": 0,
    "m_CustomColors": {
        "m_SerializableColors": []
    },
    "m_Property": {
        "m_Id": "1b505d6dc231441b9185f745893ad818"
    }
}

