%YAML 1.1
%TAG !u! tag:unity3d.com,2011:
--- !u!21 &2100000
Material:
  serializedVersion: 6
  m_ObjectHideFlags: 0
  m_CorrespondingSourceObject: {fileID: 0}
  m_PrefabInstance: {fileID: 0}
  m_PrefabAsset: {fileID: 0}
  m_Name: CarrotRamp
  m_Shader: {fileID: -6465566751694194690, guid: 4f0bf71a22c001c4fbecb41c302b58fd, type: 3}
  m_ShaderKeywords: 
  m_LightmapFlags: 4
  m_EnableInstancingVariants: 0
  m_DoubleSidedGI: 0
  m_CustomRenderQueue: -1
  stringTagMap: {}
  disabledShaderPasses: []
  m_SavedProperties:
    serializedVersion: 3
    m_TexEnvs:
    - unity_Lightmaps:
        m_Texture: {fileID: 0}
        m_Scale: {x: 1, y: 1}
        m_Offset: {x: 0, y: 0}
    - unity_LightmapsInd:
        m_Texture: {fileID: 0}
        m_Scale: {x: 1, y: 1}
        m_Offset: {x: 0, y: 0}
    - unity_ShadowMasks:
        m_Texture: {fileID: 0}
        m_Scale: {x: 1, y: 1}
        m_Offset: {x: 0, y: 0}
    m_Floats:
    - Vector1_1: 0
    - Vector1_2: 0.822
    - Vector1_29e1d0d0a82e406ba6a5e601a772401c: 2.88
    - Vector1_4fee92827648452cac37421e621d09ee: 0
    - Vector1_9fb235731dd64da09df1cbc5b951bcf6: 0.079
    - _DarkThreshold: 0.1
    - _HighlightThreshold: 0.9
    - _Max: 1.5
    - _MidThreshold: 0.5
    - _Min: 0
    m_Colors:
    - Color_2c777e36265a4555ac91bc0221791df5: {r: 0.8160377, g: 1, b: 0.96779114, a: 0}
    - Color_9c597604793a424286280b994d56fddf: {r: 1, g: 1, b: 1, a: 0}
    - Color_c01d2908f3a840a590520c5594477573: {r: 0.0039215684, g: 0.20025527, b: 0.25490198, a: 0}
    - Color_f52d164a7bc64235b715e65cd2ebc4a3: {r: 0.63923997, g: 0.7868224, b: 0.8018868, a: 0}
    - _Color: {r: 0.9811321, g: 0.9811321, b: 0.9811321, a: 0}
    - _Dark: {r: 0.28301886, g: 0.28301886, b: 0.28301886, a: 0}
    - _Highlight: {r: 0.9811321, g: 0.9811321, b: 0.9811321, a: 0}
    - _Mid: {r: 0.5943396, g: 0.5943396, b: 0.5943396, a: 0}
    - _Shadow: {r: 0, g: 0, b: 0, a: 0}
  m_BuildTextureStacks: []
