{
    "m_SGVersion": 2,
    "m_Type": "UnityEditor.ShaderGraph.GraphData",
    "m_ObjectId": "56127f0177f24ca8b54b83fc21c4f6dc",
    "m_Properties": [
        {
            "m_Id": "6b83798690a64402b16f00ab85dbfa5c"
        },
        {
            "m_Id": "f2fb065b3abb4403b6ca272b7218c83f"
        },
        {
            "m_Id": "0f8a360a40fb4fc9872412c42841261f"
        }
    ],
    "m_Keywords": [],
    "m_Nodes": [
        {
            "m_Id": "15e477fc5523466e909dccb667b46d15"
        },
        {
            "m_Id": "3908c13fc81f41c2a05d29db120b3c38"
        },
        {
            "m_Id": "99a981c954f74e859a60009f615b8650"
        },
        {
            "m_Id": "1bbd8a15e01c4295a80275f6f396c4cf"
        },
        {
            "m_Id": "a102a02ac4b64390ba629b4925a81640"
        }
    ],
    "m_GroupDatas": [],
    "m_StickyNoteDatas": [],
    "m_Edges": [
        {
            "m_OutputSlot": {
                "m_Node": {
                    "m_Id": "1bbd8a15e01c4295a80275f6f396c4cf"
                },
                "m_SlotId": 0
            },
            "m_InputSlot": {
                "m_Node": {
                    "m_Id": "3908c13fc81f41c2a05d29db120b3c38"
                },
                "m_SlotId": 1
            }
        },
        {
            "m_OutputSlot": {
                "m_Node": {
                    "m_Id": "3908c13fc81f41c2a05d29db120b3c38"
                },
                "m_SlotId": 3
            },
            "m_InputSlot": {
                "m_Node": {
                    "m_Id": "15e477fc5523466e909dccb667b46d15"
                },
                "m_SlotId": 0
            }
        },
        {
            "m_OutputSlot": {
                "m_Node": {
                    "m_Id": "99a981c954f74e859a60009f615b8650"
                },
                "m_SlotId": 0
            },
            "m_InputSlot": {
                "m_Node": {
                    "m_Id": "3908c13fc81f41c2a05d29db120b3c38"
                },
                "m_SlotId": 0
            }
        },
        {
            "m_OutputSlot": {
                "m_Node": {
                    "m_Id": "a102a02ac4b64390ba629b4925a81640"
                },
                "m_SlotId": 0
            },
            "m_InputSlot": {
                "m_Node": {
                    "m_Id": "3908c13fc81f41c2a05d29db120b3c38"
                },
                "m_SlotId": 2
            }
        }
    ],
    "m_VertexContext": {
        "m_Position": {
            "x": 0.0,
            "y": 0.0
        },
        "m_Blocks": []
    },
    "m_FragmentContext": {
        "m_Position": {
            "x": 0.0,
            "y": 0.0
        },
        "m_Blocks": []
    },
    "m_PreviewData": {
        "serializedMesh": {
            "m_SerializedMesh": "{\"mesh\":{\"instanceID\":0}}",
            "m_Guid": ""
        }
    },
    "m_Path": "Sub Graphs",
    "m_ConcretePrecision": 0,
    "m_PreviewMode": 0,
    "m_OutputNode": {
        "m_Id": "15e477fc5523466e909dccb667b46d15"
    },
    "m_ActiveTargets": []
}

{
    "m_SGVersion": 0,
    "m_Type": "UnityEditor.ShaderGraph.Vector2MaterialSlot",
    "m_ObjectId": "01403d7cf80f4137a496a89a7f87f587",
    "m_Id": 0,
    "m_DisplayName": "p",
    "m_SlotType": 1,
    "m_Hidden": false,
    "m_ShaderOutputName": "Out",
    "m_StageCapability": 3,
    "m_Value": {
        "x": 0.0,
        "y": 0.0
    },
    "m_DefaultValue": {
        "x": 0.0,
        "y": 0.0
    },
    "m_Labels": []
}

{
    "m_SGVersion": 1,
    "m_Type": "UnityEditor.ShaderGraph.Internal.Vector1ShaderProperty",
    "m_ObjectId": "0f8a360a40fb4fc9872412c42841261f",
    "m_Guid": {
        "m_GuidSerialized": "be41ee10-8613-41de-9dcb-f5c92ceaa662"
    },
    "m_Name": "radius",
    "m_DefaultReferenceName": "Vector1_0f8a360a40fb4fc9872412c42841261f",
    "m_OverrideReferenceName": "",
    "m_GeneratePropertyBlock": true,
    "m_Precision": 0,
    "overrideHLSLDeclaration": false,
    "hlslDeclarationOverride": 0,
    "m_Hidden": false,
    "m_Value": 0.0,
    "m_FloatType": 0,
    "m_RangeValues": {
        "x": 0.0,
        "y": 1.0
    }
}

{
    "m_SGVersion": 0,
    "m_Type": "UnityEditor.ShaderGraph.SubGraphOutputNode",
    "m_ObjectId": "15e477fc5523466e909dccb667b46d15",
    "m_Group": {
        "m_Id": ""
    },
    "m_Name": "Output",
    "m_DrawState": {
        "m_Expanded": true,
        "m_Position": {
            "serializedVersion": "2",
            "x": 323.9999694824219,
            "y": 20.5000057220459,
            "width": 98.49999237060547,
            "height": 77.0
        }
    },
    "m_Slots": [
        {
            "m_Id": "ead6ed600bd34614999a8a542a853b01"
        }
    ],
    "synonyms": [],
    "m_Precision": 0,
    "m_PreviewExpanded": true,
    "m_PreviewMode": 0,
    "m_CustomColors": {
        "m_SerializableColors": []
    },
    "IsFirstSlotValid": true
}

{
    "m_SGVersion": 0,
    "m_Type": "UnityEditor.ShaderGraph.PropertyNode",
    "m_ObjectId": "1bbd8a15e01c4295a80275f6f396c4cf",
    "m_Group": {
        "m_Id": ""
    },
    "m_Name": "Property",
    "m_DrawState": {
        "m_Expanded": true,
        "m_Position": {
            "serializedVersion": "2",
            "x": -156.50003051757813,
            "y": 70.4999771118164,
            "width": 116.49999237060547,
            "height": 34.0
        }
    },
    "m_Slots": [
        {
            "m_Id": "a2033af7b917437880fe0706779ea5e1"
        }
    ],
    "synonyms": [],
    "m_Precision": 0,
    "m_PreviewExpanded": true,
    "m_PreviewMode": 0,
    "m_CustomColors": {
        "m_SerializableColors": []
    },
    "m_Property": {
        "m_Id": "f2fb065b3abb4403b6ca272b7218c83f"
    }
}

{
    "m_SGVersion": 1,
    "m_Type": "UnityEditor.ShaderGraph.CustomFunctionNode",
    "m_ObjectId": "3908c13fc81f41c2a05d29db120b3c38",
    "m_Group": {
        "m_Id": ""
    },
    "m_Name": "sd_rounded_box_uniform (Custom Function)",
    "m_DrawState": {
        "m_Expanded": true,
        "m_Position": {
            "serializedVersion": "2",
            "x": -3.0,
            "y": 20.0,
            "width": 288.5,
            "height": 326.0
        }
    },
    "m_Slots": [
        {
            "m_Id": "fd6609d917614bb893f5d8883e288685"
        },
        {
            "m_Id": "76230955e0094ef1a5dfebdadd449eea"
        },
        {
            "m_Id": "fbb4e41a9e894a08a74d48e684aa1a66"
        },
        {
            "m_Id": "862121e397094d54a4bd3322ee5884db"
        }
    ],
    "synonyms": [],
    "m_Precision": 0,
    "m_PreviewExpanded": true,
    "m_PreviewMode": 0,
    "m_CustomColors": {
        "m_SerializableColors": []
    },
    "m_SourceType": 0,
    "m_FunctionName": "sd_rounded_box_uniform",
    "m_FunctionSource": "0bc8f4f186397a84a9f4d387eb523539",
    "m_FunctionBody": "Enter function body here..."
}

{
    "m_SGVersion": 0,
    "m_Type": "UnityEditor.ShaderGraph.Vector1MaterialSlot",
    "m_ObjectId": "4c203c24e52b4a9e871ebbb13e99fa9e",
    "m_Id": 0,
    "m_DisplayName": "radius",
    "m_SlotType": 1,
    "m_Hidden": false,
    "m_ShaderOutputName": "Out",
    "m_StageCapability": 3,
    "m_Value": 0.0,
    "m_DefaultValue": 0.0,
    "m_Labels": []
}

{
    "m_SGVersion": 1,
    "m_Type": "UnityEditor.ShaderGraph.Internal.Vector2ShaderProperty",
    "m_ObjectId": "6b83798690a64402b16f00ab85dbfa5c",
    "m_Guid": {
        "m_GuidSerialized": "00ecc46e-a0c9-4444-b684-fbed173f8cbf"
    },
    "m_Name": "p",
    "m_DefaultReferenceName": "Vector2_6b83798690a64402b16f00ab85dbfa5c",
    "m_OverrideReferenceName": "",
    "m_GeneratePropertyBlock": true,
    "m_Precision": 0,
    "overrideHLSLDeclaration": false,
    "hlslDeclarationOverride": 0,
    "m_Hidden": false,
    "m_Value": {
        "x": 0.0,
        "y": 0.0,
        "z": 0.0,
        "w": 0.0
    }
}

{
    "m_SGVersion": 0,
    "m_Type": "UnityEditor.ShaderGraph.Vector2MaterialSlot",
    "m_ObjectId": "76230955e0094ef1a5dfebdadd449eea",
    "m_Id": 1,
    "m_DisplayName": "bounds",
    "m_SlotType": 0,
    "m_Hidden": false,
    "m_ShaderOutputName": "bounds",
    "m_StageCapability": 3,
    "m_Value": {
        "x": 0.0,
        "y": 0.0
    },
    "m_DefaultValue": {
        "x": 0.0,
        "y": 0.0
    },
    "m_Labels": []
}

{
    "m_SGVersion": 0,
    "m_Type": "UnityEditor.ShaderGraph.Vector1MaterialSlot",
    "m_ObjectId": "862121e397094d54a4bd3322ee5884db",
    "m_Id": 3,
    "m_DisplayName": "Distance",
    "m_SlotType": 1,
    "m_Hidden": false,
    "m_ShaderOutputName": "Distance",
    "m_StageCapability": 3,
    "m_Value": 0.0,
    "m_DefaultValue": 0.0,
    "m_Labels": []
}

{
    "m_SGVersion": 0,
    "m_Type": "UnityEditor.ShaderGraph.PropertyNode",
    "m_ObjectId": "99a981c954f74e859a60009f615b8650",
    "m_Group": {
        "m_Id": ""
    },
    "m_Name": "Property",
    "m_DrawState": {
        "m_Expanded": true,
        "m_Position": {
            "serializedVersion": "2",
            "x": -156.50003051757813,
            "y": 10.999979972839356,
            "width": 84.5,
            "height": 34.0
        }
    },
    "m_Slots": [
        {
            "m_Id": "01403d7cf80f4137a496a89a7f87f587"
        }
    ],
    "synonyms": [],
    "m_Precision": 0,
    "m_PreviewExpanded": true,
    "m_PreviewMode": 0,
    "m_CustomColors": {
        "m_SerializableColors": []
    },
    "m_Property": {
        "m_Id": "6b83798690a64402b16f00ab85dbfa5c"
    }
}

{
    "m_SGVersion": 0,
    "m_Type": "UnityEditor.ShaderGraph.PropertyNode",
    "m_ObjectId": "a102a02ac4b64390ba629b4925a81640",
    "m_Group": {
        "m_Id": ""
    },
    "m_Name": "Property",
    "m_DrawState": {
        "m_Expanded": true,
        "m_Position": {
            "serializedVersion": "2",
            "x": -143.99998474121095,
            "y": 113.0,
            "width": 107.49999237060547,
            "height": 34.0
        }
    },
    "m_Slots": [
        {
            "m_Id": "4c203c24e52b4a9e871ebbb13e99fa9e"
        }
    ],
    "synonyms": [],
    "m_Precision": 0,
    "m_PreviewExpanded": true,
    "m_PreviewMode": 0,
    "m_CustomColors": {
        "m_SerializableColors": []
    },
    "m_Property": {
        "m_Id": "0f8a360a40fb4fc9872412c42841261f"
    }
}

{
    "m_SGVersion": 0,
    "m_Type": "UnityEditor.ShaderGraph.Vector2MaterialSlot",
    "m_ObjectId": "a2033af7b917437880fe0706779ea5e1",
    "m_Id": 0,
    "m_DisplayName": "bounds",
    "m_SlotType": 1,
    "m_Hidden": false,
    "m_ShaderOutputName": "Out",
    "m_StageCapability": 3,
    "m_Value": {
        "x": 0.0,
        "y": 0.0
    },
    "m_DefaultValue": {
        "x": 0.0,
        "y": 0.0
    },
    "m_Labels": []
}

{
    "m_SGVersion": 0,
    "m_Type": "UnityEditor.ShaderGraph.Vector1MaterialSlot",
    "m_ObjectId": "ead6ed600bd34614999a8a542a853b01",
    "m_Id": 0,
    "m_DisplayName": "distance",
    "m_SlotType": 0,
    "m_Hidden": false,
    "m_ShaderOutputName": "distance",
    "m_StageCapability": 3,
    "m_Value": 0.0,
    "m_DefaultValue": 0.0,
    "m_Labels": []
}

{
    "m_SGVersion": 1,
    "m_Type": "UnityEditor.ShaderGraph.Internal.Vector2ShaderProperty",
    "m_ObjectId": "f2fb065b3abb4403b6ca272b7218c83f",
    "m_Guid": {
        "m_GuidSerialized": "2fc11545-23e8-4bdf-89fa-4645207b704f"
    },
    "m_Name": "bounds",
    "m_DefaultReferenceName": "Vector2_f2fb065b3abb4403b6ca272b7218c83f",
    "m_OverrideReferenceName": "",
    "m_GeneratePropertyBlock": true,
    "m_Precision": 0,
    "overrideHLSLDeclaration": false,
    "hlslDeclarationOverride": 0,
    "m_Hidden": false,
    "m_Value": {
        "x": 0.0,
        "y": 0.0,
        "z": 0.0,
        "w": 0.0
    }
}

{
    "m_SGVersion": 0,
    "m_Type": "UnityEditor.ShaderGraph.Vector1MaterialSlot",
    "m_ObjectId": "fbb4e41a9e894a08a74d48e684aa1a66",
    "m_Id": 2,
    "m_DisplayName": "radius",
    "m_SlotType": 0,
    "m_Hidden": false,
    "m_ShaderOutputName": "radius",
    "m_StageCapability": 3,
    "m_Value": 0.0,
    "m_DefaultValue": 0.0,
    "m_Labels": []
}

{
    "m_SGVersion": 0,
    "m_Type": "UnityEditor.ShaderGraph.Vector2MaterialSlot",
    "m_ObjectId": "fd6609d917614bb893f5d8883e288685",
    "m_Id": 0,
    "m_DisplayName": "p",
    "m_SlotType": 0,
    "m_Hidden": false,
    "m_ShaderOutputName": "p",
    "m_StageCapability": 3,
    "m_Value": {
        "x": 0.0,
        "y": 0.0
    },
    "m_DefaultValue": {
        "x": 0.0,
        "y": 0.0
    },
    "m_Labels": []
}

