%YAML 1.1
%TAG !u! tag:unity3d.com,2011:
--- !u!114 &11400000
MonoBehaviour:
  m_ObjectHideFlags: 0
  m_CorrespondingSourceObject: {fileID: 0}
  m_PrefabInstance: {fileID: 0}
  m_PrefabAsset: {fileID: 0}
  m_GameObject: {fileID: 0}
  m_Enabled: 1
  m_EditorHideFlags: 0
  m_Script: {fileID: 11500000, guid: 3fb4b78f324a43568fcf07cb0e0f6dce, type: 3}
  m_Name: ParasolPickup
  m_EditorClassIdentifier: 
  effect:
    clip: {fileID: 8300000, guid: a8b55c95e96bd374e84d530c7eeb503e, type: 3}
    volume: 1
    pitch: 1
